Sumador-Restador/Sumador/sim/top.vcd
$date
	Sat Oct 14 22:31:55 2023
$end
$version
	Icarus Verilog
$end
$timescale
	1s
$end
$scope module testbech $end
$var wire 5 ! outs [4:0] $end
$var reg 9 " inputs [8:0] $end
$var integer 32 # i [31:0] $end
$scope module dut $end
$var wire 1 $ in_a0 $end
$var wire 1 % in_a1 $end
$var wire 1 & in_a2 $end
$var wire 1 ' in_a3 $end
$var wire 1 ( in_b0 $end
$var wire 1 ) in_b1 $end
$var wire 1 * in_b2 $end
$var wire 1 + in_b3 $end
$var wire 1 , in_ca0 $end
$var wire 1 - out_s3 $end
$var wire 1 . out_s2 $end
$var wire 1 / out_s1 $end
$var wire 1 0 out_s0 $end
$var wire 1 1 out_ca $end
$var wire 1 2 co_s2_to_in_ci3 $end
$var wire 1 3 co_s1_to_in_ci2 $end
$var wire 1 4 co_s0_to_in_ci1 $end
$scope module fulladder1 $end
$var wire 1 $ in_a $end
$var wire 1 ( in_b $end
$var wire 1 , in_ci $end
$var wire 1 4 out_co $end
$var wire 1 5 s_s1_to_b_s2 $end
$var wire 1 0 out_s $end
$var wire 1 6 co_s2_to_or $end
$var wire 1 7 co_s1_to_or $end
$scope module halfadder1 $end
$var wire 1 $ a $end
$var wire 1 ( b $end
$var wire 1 7 co $end
$var wire 1 5 s $end
$upscope $end
$scope module halfadder2 $end
$var wire 1 , a $end
$var wire 1 5 b $end
$var wire 1 6 co $end
$var wire 1 0 s $end
$upscope $end
$upscope $end
$scope module fulladder2 $end
$var wire 1 % in_a $end
$var wire 1 ) in_b $end
$var wire 1 4 in_ci $end
$var wire 1 3 out_co $end
$var wire 1 8 s_s1_to_b_s2 $end
$var wire 1 / out_s $end
$var wire 1 9 co_s2_to_or $end
$var wire 1 : co_s1_to_or $end
$scope module halfadder1 $end
$var wire 1 % a $end
$var wire 1 ) b $end
$var wire 1 : co $end
$var wire 1 8 s $end
$upscope $end
$scope module halfadder2 $end
$var wire 1 4 a $end
$var wire 1 8 b $end
$var wire 1 9 co $end
$var wire 1 / s $end
$upscope $end
$upscope $end
$scope module fulladder3 $end
$var wire 1 & in_a $end
$var wire 1 * in_b $end
$var wire 1 3 in_ci $end
$var wire 1 2 out_co $end
$var wire 1 ; s_s1_to_b_s2 $end
$var wire 1 . out_s $end
$var wire 1 < co_s2_to_or $end
$var wire 1 = co_s1_to_or $end
$scope module halfadder1 $end
$var wire 1 & a $end
$var wire 1 * b $end
$var wire 1 = co $end
$var wire 1 ; s $end
$upscope $end
$scope module halfadder2 $end
$var wire 1 3 a $end
$var wire 1 ; b $end
$var wire 1 < co $end
$var wire 1 . s $end
$upscope $end
$upscope $end
$scope module fulladder4 $end
$var wire 1 ' in_a $end
$var wire 1 + in_b $end
$var wire 1 2 in_ci $end
$var wire 1 1 out_co $end
$var wire 1 > s_s1_to_b_s2 $end
$var wire 1 - out_s $end
$var wire 1 ? co_s2_to_or $end
$var wire 1 @ co_s1_to_or $end
$scope module halfadder1 $end
$var wire 1 ' a $end
$var wire 1 + b $end
$var wire 1 @ co $end
$var wire 1 > s $end
$upscope $end
$scope module halfadder2 $end
$var wire 1 2 a $end
$var wire 1 > b $end
$var wire 1 ? co $end
$var wire 1 - s $end
$upscope $end
$upscope $end
$upscope $end
$upscope $end
$enddefinitions $end
$comment Show the parameter values. $end
$dumpall
$end
#0
$dumpvars
0@
0?
0>
0=
0<
0;
0:
09
08
07
06
05
04
03
02
01
00
0/
0.
0-
0,
0+
0*
0)
0(
0'
0&
0%
0$
b0 #
b0 "
b0 !
$end
#1
b1000 !
10
1,
b1 "
b1 #
#2
1-
1>
b1 !
00
1'
0,
b10 "
b10 #
#3
b1001 !
10
1,
b11 "
b11 #
#4
b1 !
00
1+
0'
0,
b100 "
b100 #
#5
b1001 !
10
1,
b101 "
b101 #
#6
0-
11
0>
1@
b10000 !
00
1'
0,
b110 "
b110 #
#7
b11000 !
10
1,
b111 "
b111 #
#8
1.
01
1;
0@
b10 !
00
1&
0+
0'
0,
b1000 "
b1000 #
#9
b1010 !
10
1,
b1001 "
b1001 #
#10
1-
1>
b11 !
00
1'
0,
b1010 "
b1010 #
#11
b1011 !
10
1,
b1011 "
b1011 #
#12
b11 !
00
1+
0'
0,
b1100 "
b1100 #
#13
b1011 !
10
1,
b1101 "
b1101 #
#14
0-
11
0>
1@
b10010 !
00
1'
0,
b1110 "
b1110 #
#15
b11010 !
10
1,
b1111 "
b1111 #
#16
01
0@
b10 !
00
1*
0&
0+
0'
0,
b10000 "
b10000 #
#17
b1010 !
10
1,
b10001 "
b10001 #
#18
1-
1>
b11 !
00
1'
0,
b10010 "
b10010 #
#19
b1011 !
10
1,
b10011 "
b10011 #
#20
b11 !
00
1+
0'
0,
b10100 "
b10100 #
#21
b1011 !
10
1,
b10101 "
b10101 #
#22
0-
11
0>
1@
b10010 !
00
1'
0,
b10110 "
b10110 #
#23
b11010 !
10
1,
b10111 "
b10111 #
#24
1-
0.
12
01
0;
1=
0@
b1 !
00
1&
0+
0'
0,
b11000 "
b11000 #
#25
b1001 !
10
1,
b11001 "
b11001 #
#26
11
0-
1?
1>
b10000 !
00
1'
0,
b11010 "
b11010 #
#27
b11000 !
10
1,
b11011 "
b11011 #
#28
b10000 !
00
1+
0'
0,
b11100 "
b11100 #
#29
b11000 !
10
1,
b11101 "
b11101 #
#30
1-
0?
0>
1@
b10001 !
00
1'
0,
b11110 "
b11110 #
#31
b11001 !
10
1,
b11111 "
b11111 #
#32
0-
1/
02
01
18
0=
0@
b100 !
00
1%
0*
0&
0+
0'
0,
b100000 "
b100000 #
#33
b1100 !
10
1,
b100001 "
b100001 #
#34
1-
1>
b101 !
00
1'
0,
b100010 "
b100010 #
#35
b1101 !
10
1,
b100011 "
b100011 #
#36
b101 !
00
1+
0'
0,
b100100 "
b100100 #
#37
b1101 !
10
1,
b100101 "
b100101 #
#38
0-
11
0>
1@
b10100 !
00
1'
0,
b100110 "
b100110 #
#39
b11100 !
10
1,
b100111 "
b100111 #
#40
1.
01
1;
0@
b110 !
00
1&
0+
0'
0,
b101000 "
b101000 #
#41
b1110 !
10
1,
b101001 "
b101001 #
#42
1-
1>
b111 !
00
1'
0,
b101010 "
b101010 #
#43
b1111 !
10
1,
b101011 "
b101011 #
#44
b111 !
00
1+
0'
0,
b101100 "
b101100 #
#45
b1111 !
10
1,
b101101 "
b101101 #
#46
0-
11
0>
1@
b10110 !
00
1'
0,
b101110 "
b101110 #
#47
b11110 !
10
1,
b101111 "
b101111 #
#48
01
0@
b110 !
00
1*
0&
0+
0'
0,
b110000 "
b110000 #
#49
b1110 !
10
1,
b110001 "
b110001 #
#50
1-
1>
b111 !
00
1'
0,
b110010 "
b110010 #
#51
b1111 !
10
1,
b110011 "
b110011 #
#52
b111 !
00
1+
0'
0,
b110100 "
b110100 #
#53
b1111 !
10
1,
b110101 "
b110101 #
#54
0-
11
0>
1@
b10110 !
00
1'
0,
b110110 "
b110110 #
#55
b11110 !
10
1,
b110111 "
b110111 #
#56
1-
0.
12
01
0;
1=
0@
b101 !
00
1&
0+
0'
0,
b111000 "
b111000 #
#57
b1101 !
10
1,
b111001 "
b111001 #
#58
11
0-
1?
1>
b10100 !
00
1'
0,
b111010 "
b111010 #
#59
b11100 !
10
1,
b111011 "
b111011 #
#60
b10100 !
00
1+
0'
0,
b111100 "
b111100 #
#61
b11100 !
10
1,
b111101 "
b111101 #
#62
1-
0?
0>
1@
b10101 !
00
1'
0,
b111110 "
b111110 #
#63
b11101 !
10
1,
b111111 "
b111111 #
#64
0-
02
01
0=
0@
b100 !
00
1)
0%
0*
0&
0+
0'
0,
b1000000 "
b1000000 #
#65
b1100 !
10
1,
b1000001 "
b1000001 #
#66
1-
1>
b101 !
00
1'
0,
b1000010 "
b1000010 #
#67
b1101 !
10
1,
b1000011 "
b1000011 #
#68
b101 !
00
1+
0'
0,
b1000100 "
b1000100 #
#69
b1101 !
10
1,
b1000101 "
b1000101 #
#70
0-
11
0>
1@
b10100 !
00
1'
0,
b1000110 "
b1000110 #
#71
b11100 !
10
1,
b1000111 "
b1000111 #
#72
1.
01
1;
0@
b110 !
00
1&
0+
0'
0,
b1001000 "
b1001000 #
#73
b1110 !
10
1,
b1001001 "
b1001001 #
#74
1-
1>
b111 !
00
1'
0,
b1001010 "
b1001010 #
#75
b1111 !
10
1,
b1001011 "
b1001011 #
#76
b111 !
00
1+
0'
0,
b1001100 "
b1001100 #
#77
b1111 !
10
1,
b1001101 "
b1001101 #
#78
0-
11
0>
1@
b10110 !
00
1'
0,
b1001110 "
b1001110 #
#79
b11110 !
10
1,
b1001111 "
b1001111 #
#80
01
0@
b110 !
00
1*
0&
0+
0'
0,
b1010000 "
b1010000 #
#81
b1110 !
10
1,
b1010001 "
b1010001 #
#82
1-
1>
b111 !
00
1'
0,
b1010010 "
b1010010 #
#83
b1111 !
10
1,
b1010011 "
b1010011 #
#84
b111 !
00
1+
0'
0,
b1010100 "
b1010100 #
#85
b1111 !
10
1,
b1010101 "
b1010101 #
#86
0-
11
0>
1@
b10110 !
00
1'
0,
b1010110 "
b1010110 #
#87
b11110 !
10
1,
b1010111 "
b1010111 #
#88
1-
0.
12
01
0;
1=
0@
b101 !
00
1&
0+
0'
0,
b1011000 "
b1011000 #
#89
b1101 !
10
1,
b1011001 "
b1011001 #
#90
11
0-
1?
1>
b10100 !
00
1'
0,
b1011010 "
b1011010 #
#91
b11100 !
10
1,
b1011011 "
b1011011 #
#92
b10100 !
00
1+
0'
0,
b1011100 "
b1011100 #
#93
b11100 !
10
1,
b1011101 "
b1011101 #
#94
1-
0?
0>
1@
b10101 !
00
1'
0,
b1011110 "
b1011110 #
#95
b11101 !
10
1,
b1011111 "
b1011111 #
#96
1.
0-
0/
13
02
01
08
1:
0=
0@
b10 !
00
1%
0*
0&
0+
0'
0,
b1100000 "
b1100000 #
#97
b1010 !
10
1,
b1100001 "
b1100001 #
#98
1-
1>
b11 !
00
1'
0,
b1100010 "
b1100010 #
#99
b1011 !
10
1,
b1100011 "
b1100011 #
#100
b11 !
00
1+
0'
0,
b1100100 "
b1100100 #
#101
b1011 !
10
1,
b1100101 "
b1100101 #
#102
0-
11
0>
1@
b10010 !
00
1'
0,
b1100110 "
b1100110 #
#103
b11010 !
10
1,
b1100111 "
b1100111 #
#104
1-
12
0.
1<
01
1;
0@
b1 !
00
1&
0+
0'
0,
b1101000 "
b1101000 #
#105
b1001 !
10
1,
b1101001 "
b1101001 #
#106
11
0-
1?
1>
b10000 !
00
1'
0,
b1101010 "
b1101010 #
#107
b11000 !
10
1,
b1101011 "
b1101011 #
#108
b10000 !
00
1+
0'
0,
b1101100 "
b1101100 #
#109
b11000 !
10
1,
b1101101 "
b1101101 #
#110
1-
0?
0>
1@
b10001 !
00
1'
0,
b1101110 "
b1101110 #
#111
b11001 !
10
1,
b1101111 "
b1101111 #
#112
01
0@
b1 !
00
1*
0&
0+
0'
0,
b1110000 "
b1110000 #
#113
b1001 !
10
1,
b1110001 "
b1110001 #
#114
11
0-
1?
1>
b10000 !
00
1'
0,
b1110010 "
b1110010 #
#115
b11000 !
10
1,
b1110011 "
b1110011 #
#116
b10000 !
00
1+
0'
0,
b1110100 "
b1110100 #
#117
b11000 !
10
1,
b1110101 "
b1110101 #
#118
1-
0?
0>
1@
b10001 !
00
1'
0,
b1110110 "
b1110110 #
#119
b11001 !
10
1,
b1110111 "
b1110111 #
#120
1.
0<
01
0;
1=
0@
b11 !
00
1&
0+
0'
0,
b1111000 "
b1111000 #
#121
b1011 !
10
1,
b1111001 "
b1111001 #
#122
11
0-
1?
1>
b10010 !
00
1'
0,
b1111010 "
b1111010 #
#123
b11010 !
10
1,
b1111011 "
b1111011 #
#124
b10010 !
00
1+
0'
0,
b1111100 "
b1111100 #
#125
b11010 !
10
1,
b1111101 "
b1111101 #
#126
1-
0?
0>
1@
b10011 !
00
1'
0,
b1111110 "
b1111110 #
#127
b11011 !
10
1,
b1111111 "
b1111111 #
#128
0.
0-
03
02
01
15
0:
0=
0@
b1000 !
10
1$
0)
0%
0*
0&
0+
0'
0,
b10000000 "
b10000000 #
#129
1/
14
b100 !
00
16
1,
b10000001 "
b10000001 #
#130
0/
1-
04
1>
b1001 !
10
06
1'
0,
b10000010 "
b10000010 #
#131
1/
14
b101 !
00
16
1,
b10000011 "
b10000011 #
#132
0/
04
b1001 !
10
06
1+
0'
0,
b10000100 "
b10000100 #
#133
1/
14
b101 !
00
16
1,
b10000101 "
b10000101 #
#134
0/
0-
11
04
0>
1@
b11000 !
10
06
1'
0,
b10000110 "
b10000110 #
#135
1/
14
b10100 !
00
16
1,
b10000111 "
b10000111 #
#136
0/
1.
01
04
1;
0@
b1010 !
10
06
1&
0+
0'
0,
b10001000 "
b10001000 #
#137
1/
14
b110 !
00
16
1,
b10001001 "
b10001001 #
#138
0/
1-
04
1>
b1011 !
10
06
1'
0,
b10001010 "
b10001010 #
#139
1/
14
b111 !
00
16
1,
b10001011 "
b10001011 #
#140
0/
04
b1011 !
10
06
1+
0'
0,
b10001100 "
b10001100 #
#141
1/
14
b111 !
00
16
1,
b10001101 "
b10001101 #
#142
0/
0-
11
04
0>
1@
b11010 !
10
06
1'
0,
b10001110 "
b10001110 #
#143
1/
14
b10110 !
00
16
1,
b10001111 "
b10001111 #
#144
0/
01
04
0@
b1010 !
10
06
1*
0&
0+
0'
0,
b10010000 "
b10010000 #
#145
1/
14
b110 !
00
16
1,
b10010001 "
b10010001 #
#146
0/
1-
04
1>
b1011 !
10
06
1'
0,
b10010010 "
b10010010 #
#147
1/
14
b111 !
00
16
1,
b10010011 "
b10010011 #
#148
0/
04
b1011 !
10
06
1+
0'
0,
b10010100 "
b10010100 #
#149
1/
14
b111 !
00
16
1,
b10010101 "
b10010101 #
#150
0/
0-
11
04
0>
1@
b11010 !
10
06
1'
0,
b10010110 "
b10010110 #
#151
1/
14
b10110 !
00
16
1,
b10010111 "
b10010111 #
#152
1-
0/
0.
12
01
04
0;
1=
0@
b1001 !
10
06
1&
0+
0'
0,
b10011000 "
b10011000 #
#153
1/
14
b101 !
00
16
1,
b10011001 "
b10011001 #
#154
11
0/
0-
1?
04
1>
b11000 !
10
06
1'
0,
b10011010 "
b10011010 #
#155
1/
14
b10100 !
00
16
1,
b10011011 "
b10011011 #
#156
0/
04
b11000 !
10
06
1+
0'
0,
b10011100 "
b10011100 #
#157
1/
14
b10100 !
00
16
1,
b10011101 "
b10011101 #
#158
0/
1-
0?
04
0>
1@
b11001 !
10
06
1'
0,
b10011110 "
b10011110 #
#159
1/
14
b10101 !
00
16
1,
b10011111 "
b10011111 #
#160
0-
02
01
04
18
0=
0@
b1100 !
10
06
1%
0*
0&
0+
0'
0,
b10100000 "
b10100000 #
#161
1.
13
0/
19
14
b10 !
00
16
1,
b10100001 "
b10100001 #
#162
0.
03
1/
09
1-
04
1>
b1101 !
10
06
1'
0,
b10100010 "
b10100010 #
#163
1.
13
0/
19
14
b11 !
00
16
1,
b10100011 "
b10100011 #
#164
0.
03
1/
09
04
b1101 !
10
06
1+
0'
0,
b10100100 "
b10100100 #
#165
1.
13
0/
19
14
b11 !
00
16
1,
b10100101 "
b10100101 #
#166
0.
03
1/
09
0-
11
04
0>
1@
b11100 !
10
06
1'
0,
b10100110 "
b10100110 #
#167
1.
13
0/
19
14
b10010 !
00
16
1,
b10100111 "
b10100111 #
#168
0-
03
02
1/
09
1.
0<
01
04
1;
0@
b1110 !
10
06
1&
0+
0'
0,
b10101000 "
b10101000 #
#169
1-
12
0.
1<
13
0/
19
14
b1 !
00
16
1,
b10101001 "
b10101001 #
#170
02
1.
0<
03
01
1/
09
1-
0?
04
1>
b1111 !
10
06
1'
0,
b10101010 "
b10101010 #
#171
11
0-
1?
12
0.
1<
13
0/
19
14
b10000 !
00
16
1,
b10101011 "
b10101011 #
#172
01
1-
0?
02
1.
0<
03
1/
09
04
b1111 !
10
06
1+
0'
0,
b10101100 "
b10101100 #
#173
11
0-
1?
12
0.
1<
13
0/
19
14
b10000 !
00
16
1,
b10101101 "
b10101101 #
#174
02
1.
0<
03
1/
09
0-
0?
04
0>
1@
b11110 !
10
06
1'
0,
b10101110 "
b10101110 #
#175
1-
12
0.
1<
13
0/
19
14
b10001 !
00
16
1,
b10101111 "
b10101111 #
#176
0-
02
1.
0<
03
1/
09
01
04
0@
b1110 !
10
06
1*
0&
0+
0'
0,
b10110000 "
b10110000 #
#177
1-
12
0.
1<
13
0/
19
14
b1 !
00
16
1,
b10110001 "
b10110001 #
#178
02
1.
0<
03
01
1/
09
1-
0?
04
1>
b1111 !
10
06
1'
0,
b10110010 "
b10110010 #
#179
11
0-
1?
12
0.
1<
13
0/
19
14
b10000 !
00
16
1,
b10110011 "
b10110011 #
#180
01
1-
0?
02
1.
0<
03
1/
09
04
b1111 !
10
06
1+
0'
0,
b10110100 "
b10110100 #
#181
11
0-
1?
12
0.
1<
13
0/
19
14
b10000 !
00
16
1,
b10110101 "
b10110101 #
#182
02
1.
0<
03
1/
09
0-
0?
04
0>
1@
b11110 !
10
06
1'
0,
b10110110 "
b10110110 #
#183
1-
12
0.
1<
13
0/
19
14
b10001 !
00
16
1,
b10110111 "
b10110111 #
#184
03
1/
09
0.
0<
01
04
0;
1=
0@
b1101 !
10
06
1&
0+
0'
0,
b10111000 "
b10111000 #
#185
1.
13
0/
19
14
b11 !
00
16
1,
b10111001 "
b10111001 #
#186
0.
03
11
1/
09
0-
1?
04
1>
b11100 !
10
06
1'
0,
b10111010 "
b10111010 #
#187
1.
13
0/
19
14
b10010 !
00
16
1,
b10111011 "
b10111011 #
#188
0.
03
1/
09
04
b11100 !
10
06
1+
0'
0,
b10111100 "
b10111100 #
#189
1.
13
0/
19
14
b10010 !
00
16
1,
b10111101 "
b10111101 #
#190
0.
03
1/
09
1-
0?
04
0>
1@
b11101 !
10
06
1'
0,
b10111110 "
b10111110 #
#191
1.
13
0/
19
14
b10011 !
00
16
1,
b10111111 "
b10111111 #
#192
0.
03
0-
1/
09
02
01
04
0=
0@
b1100 !
10
06
1)
0%
0*
0&
0+
0'
0,
b11000000 "
b11000000 #
#193
1.
13
0/
19
14
b10 !
00
16
1,
b11000001 "
b11000001 #
#194
0.
03
1/
09
1-
04
1>
b1101 !
10
06
1'
0,
b11000010 "
b11000010 #
#195
1.
13
0/
19
14
b11 !
00
16
1,
b11000011 "
b11000011 #
#196
0.
03
1/
09
04
b1101 !
10
06
1+
0'
0,
b11000100 "
b11000100 #
#197
1.
13
0/
19
14
b11 !
00
16
1,
b11000101 "
b11000101 #
#198
0.
03
1/
09
0-
11
04
0>
1@
b11100 !
10
06
1'
0,
b11000110 "
b11000110 #
#199
1.
13
0/
19
14
b10010 !
00
16
1,
b11000111 "
b11000111 #
#200
0-
03
02
1/
09
1.
0<
01
04
1;
0@
b1110 !
10
06
1&
0+
0'
0,
b11001000 "
b11001000 #
#201
1-
12
0.
1<
13
0/
19
14
b1 !
00
16
1,
b11001001 "
b11001001 #
#202
02
1.
0<
03
01
1/
09
1-
0?
04
1>
b1111 !
10
06
1'
0,
b11001010 "
b11001010 #
#203
11
0-
1?
12
0.
1<
13
0/
19
14
b10000 !
00
16
1,
b11001011 "
b11001011 #
#204
01
1-
0?
02
1.
0<
03
1/
09
04
b1111 !
10
06
1+
0'
0,
b11001100 "
b11001100 #
#205
11
0-
1?
12
0.
1<
13
0/
19
14
b10000 !
00
16
1,
b11001101 "
b11001101 #
#206
02
1.
0<
03
1/
09
0-
0?
04
0>
1@
b11110 !
10
06
1'
0,
b11001110 "
b11001110 #
#207
1-
12
0.
1<
13
0/
19
14
b10001 !
00
16
1,
b11001111 "
b11001111 #
#208
0-
02
1.
0<
03
1/
09
01
04
0@
b1110 !
10
06
1*
0&
0+
0'
0,
b11010000 "
b11010000 #
#209
1-
12
0.
1<
13
0/
19
14
b1 !
00
16
1,
b11010001 "
b11010001 #
#210
02
1.
0<
03
01
1/
09
1-
0?
04
1>
b1111 !
10
06
1'
0,
b11010010 "
b11010010 #
#211
11
0-
1?
12
0.
1<
13
0/
19
14
b10000 !
00
16
1,
b11010011 "
b11010011 #
#212
01
1-
0?
02
1.
0<
03
1/
09
04
b1111 !
10
06
1+
0'
0,
b11010100 "
b11010100 #
#213
11
0-
1?
12
0.
1<
13
0/
19
14
b10000 !
00
16
1,
b11010101 "
b11010101 #
#214
02
1.
0<
03
1/
09
0-
0?
04
0>
1@
b11110 !
10
06
1'
0,
b11010110 "
b11010110 #
#215
1-
12
0.
1<
13
0/
19
14
b10001 !
00
16
1,
b11010111 "
b11010111 #
#216
03
1/
09
0.
0<
01
04
0;
1=
0@
b1101 !
10
06
1&
0+
0'
0,
b11011000 "
b11011000 #
#217
1.
13
0/
19
14
b11 !
00
16
1,
b11011001 "
b11011001 #
#218
0.
03
11
1/
09
0-
1?
04
1>
b11100 !
10
06
1'
0,
b11011010 "
b11011010 #
#219
1.
13
0/
19
14
b10010 !
00
16
1,
b11011011 "
b11011011 #
#220
0.
03
1/
09
04
b11100 !
10
06
1+
0'
0,
b11011100 "
b11011100 #
#221
1.
13
0/
19
14
b10010 !
00
16
1,
b11011101 "
b11011101 #
#222
0.
03
1/
09
1-
0?
04
0>
1@
b11101 !
10
06
1'
0,
b11011110 "
b11011110 #
#223
1.
13
0/
19
14
b10011 !
00
16
1,
b11011111 "
b11011111 #
#224
0-
09
02
01
04
08
1:
0=
0@
b1010 !
10
06
1%
0*
0&
0+
0'
0,
b11100000 "
b11100000 #
#225
1/
14
b110 !
00
16
1,
b11100001 "
b11100001 #
#226
0/
1-
04
1>
b1011 !
10
06
1'
0,
b11100010 "
b11100010 #
#227
1/
14
b111 !
00
16
1,
b11100011 "
b11100011 #
#228
0/
04
b1011 !
10
06
1+
0'
0,
b11100100 "
b11100100 #
#229
1/
14
b111 !
00
16
1,
b11100101 "
b11100101 #
#230
0/
0-
11
04
0>
1@
b11010 !
10
06
1'
0,
b11100110 "
b11100110 #
#231
1/
14
b10110 !
00
16
1,
b11100111 "
b11100111 #
#232
1-
12
0/
0.
1<
01
04
1;
0@
b1001 !
10
06
1&
0+
0'
0,
b11101000 "
b11101000 #
#233
1/
14
b101 !
00
16
1,
b11101001 "
b11101001 #
#234
11
0/
0-
1?
04
1>
b11000 !
10
06
1'
0,
b11101010 "
b11101010 #
#235
1/
14
b10100 !
00
16
1,
b11101011 "
b11101011 #
#236
0/
04
b11000 !
10
06
1+
0'
0,
b11101100 "
b11101100 #
#237
1/
14
b10100 !
00
16
1,
b11101101 "
b11101101 #
#238
0/
1-
0?
04
0>
1@
b11001 !
10
06
1'
0,
b11101110 "
b11101110 #
#239
1/
14
b10101 !
00
16
1,
b11101111 "
b11101111 #
#240
0/
01
04
0@
b1001 !
10
06
1*
0&
0+
0'
0,
b11110000 "
b11110000 #
#241
1/
14
b101 !
00
16
1,
b11110001 "
b11110001 #
#242
11
0/
0-
1?
04
1>
b11000 !
10
06
1'
0,
b11110010 "
b11110010 #
#243
1/
14
b10100 !
00
16
1,
b11110011 "
b11110011 #
#244
0/
04
b11000 !
10
06
1+
0'
0,
b11110100 "
b11110100 #
#245
1/
14
b10100 !
00
16
1,
b11110101 "
b11110101 #
#246
0/
1-
0?
04
0>
1@
b11001 !
10
06
1'
0,
b11110110 "
b11110110 #
#247
1/
14
b10101 !
00
16
1,
b11110111 "
b11110111 #
#248
0/
1.
0<
01
04
0;
1=
0@
b1011 !
10
06
1&
0+
0'
0,
b11111000 "
b11111000 #
#249
1/
14
b111 !
00
16
1,
b11111001 "
b11111001 #
#250
11
0/
0-
1?
04
1>
b11010 !
10
06
1'
0,
b11111010 "
b11111010 #
#251
1/
14
b10110 !
00
16
1,
b11111011 "
b11111011 #
#252
0/
04
b11010 !
10
06
1+
0'
0,
b11111100 "
b11111100 #
#253
1/
14
b10110 !
00
16
1,
b11111101 "
b11111101 #
#254
0/
1-
0?
04
0>
1@
b11011 !
10
06
1'
0,
b11111110 "
b11111110 #
#255
1/
14
b10111 !
00
16
1,
b11111111 "
b11111111 #
#256
b100000000 #
