Sumador-Restador/Restador/sim/top.vcd
$date
	Sun Oct 15 19:48:35 2023
$end
$version
	Icarus Verilog
$end
$timescale
	1s
$end
$scope module testbech $end
$var wire 5 ! outs [4:0] $end
$var reg 9 " inputs [8:0] $end
$var integer 32 # i [31:0] $end
$scope module dut $end
$var wire 1 $ in_a0 $end
$var wire 1 % in_a1 $end
$var wire 1 & in_a2 $end
$var wire 1 ' in_a3 $end
$var wire 1 ( in_b0 $end
$var wire 1 ) in_b1 $end
$var wire 1 * in_b2 $end
$var wire 1 + in_b3 $end
$var wire 1 , in_pa0 $end
$var wire 1 - po_s2_to_in_pi3 $end
$var wire 1 . po_s1_to_in_pi2 $end
$var wire 1 / po_s0_to_in_pi1 $end
$var wire 1 0 out_s3 $end
$var wire 1 1 out_s2 $end
$var wire 1 2 out_s1 $end
$var wire 1 3 out_s0 $end
$var wire 1 4 out_pa $end
$scope module fulladder1 $end
$var wire 1 $ in_a $end
$var wire 1 ( in_b $end
$var wire 1 , in_pi $end
$var wire 1 / out_po $end
$var wire 1 5 s_s1_to_b_s2 $end
$var wire 1 3 out_s $end
$var wire 1 6 co_s2_to_or $end
$var wire 1 7 co_s1_to_or $end
$scope module halfadder1 $end
$var wire 1 ( a $end
$var wire 1 $ b $end
$var wire 1 7 co $end
$var wire 1 5 s $end
$upscope $end
$scope module halfadder2 $end
$var wire 1 5 a $end
$var wire 1 , b $end
$var wire 1 6 co $end
$var wire 1 3 s $end
$upscope $end
$upscope $end
$scope module fulladder2 $end
$var wire 1 % in_a $end
$var wire 1 ) in_b $end
$var wire 1 / in_pi $end
$var wire 1 . out_po $end
$var wire 1 8 s_s1_to_b_s2 $end
$var wire 1 2 out_s $end
$var wire 1 9 co_s2_to_or $end
$var wire 1 : co_s1_to_or $end
$scope module halfadder1 $end
$var wire 1 ) a $end
$var wire 1 % b $end
$var wire 1 : co $end
$var wire 1 8 s $end
$upscope $end
$scope module halfadder2 $end
$var wire 1 8 a $end
$var wire 1 / b $end
$var wire 1 9 co $end
$var wire 1 2 s $end
$upscope $end
$upscope $end
$scope module fulladder3 $end
$var wire 1 & in_a $end
$var wire 1 * in_b $end
$var wire 1 . in_pi $end
$var wire 1 - out_po $end
$var wire 1 ; s_s1_to_b_s2 $end
$var wire 1 1 out_s $end
$var wire 1 < co_s2_to_or $end
$var wire 1 = co_s1_to_or $end
$scope module halfadder1 $end
$var wire 1 * a $end
$var wire 1 & b $end
$var wire 1 = co $end
$var wire 1 ; s $end
$upscope $end
$scope module halfadder2 $end
$var wire 1 ; a $end
$var wire 1 . b $end
$var wire 1 < co $end
$var wire 1 1 s $end
$upscope $end
$upscope $end
$scope module fulladder4 $end
$var wire 1 ' in_a $end
$var wire 1 + in_b $end
$var wire 1 - in_pi $end
$var wire 1 4 out_po $end
$var wire 1 > s_s1_to_b_s2 $end
$var wire 1 0 out_s $end
$var wire 1 ? co_s2_to_or $end
$var wire 1 @ co_s1_to_or $end
$scope module halfadder1 $end
$var wire 1 + a $end
$var wire 1 ' b $end
$var wire 1 @ co $end
$var wire 1 > s $end
$upscope $end
$scope module halfadder2 $end
$var wire 1 > a $end
$var wire 1 - b $end
$var wire 1 ? co $end
$var wire 1 0 s $end
$upscope $end
$upscope $end
$upscope $end
$upscope $end
$enddefinitions $end
$comment Show the parameter values. $end
$dumpall
$end
#0
$dumpvars
0@
0?
0>
0=
0<
0;
0:
09
08
07
06
05
04
03
02
01
00
0/
0.
0-
0,
0+
0*
0)
0(
0'
0&
0%
0$
b0 #
b0 "
b0 !
$end
#1
14
10
1?
1-
11
1<
1.
12
19
1/
b11111 !
13
16
1,
b1 "
b1 #
#2
0-
01
0<
0.
0?
02
09
10
0/
1>
1@
b10001 !
03
06
1'
0,
b10 "
b10 #
#3
00
1-
11
1<
1.
12
19
1/
b11110 !
13
16
1,
b11 "
b11 #
#4
10
0-
01
0<
0.
02
09
04
0/
0@
b1 !
03
06
1+
0'
0,
b100 "
b100 #
#5
00
1-
11
1<
1.
12
19
1/
b1110 !
13
16
1,
b101 "
b101 #
#6
0-
01
0<
04
0.
0?
02
09
00
0/
0>
b0 !
03
06
1'
0,
b110 "
b110 #
#7
14
10
1?
1-
11
1<
1.
12
19
1/
b11111 !
13
16
1,
b111 "
b111 #
#8
0.
0<
02
09
11
0/
1;
1=
b10011 !
03
06
1&
0+
0'
0,
b1000 "
b1000 #
#9
01
1.
12
19
1/
b11101 !
13
16
1,
b1001 "
b1001 #
#10
11
0.
0?
02
09
00
0/
1>
1@
b10010 !
03
06
1'
0,
b1010 "
b1010 #
#11
01
1.
12
19
1/
b11100 !
13
16
1,
b1011 "
b1011 #
#12
11
0.
02
09
04
0/
0@
b10 !
03
06
1+
0'
0,
b1100 "
b1100 #
#13
01
1.
12
19
1/
b1100 !
13
16
1,
b1101 "
b1101 #
#14
11
14
0.
1?
02
09
10
0/
0>
b10011 !
03
06
1'
0,
b1110 "
b1110 #
#15
01
1.
12
19
1/
b11101 !
13
16
1,
b1111 "
b1111 #
#16
11
04
0.
00
0?
02
09
0-
0/
0=
b10 !
03
06
1*
0&
0+
0'
0,
b10000 "
b10000 #
#17
01
1.
12
19
1/
b1100 !
13
16
1,
b10001 "
b10001 #
#18
11
0.
02
09
10
14
0/
1>
1@
b10011 !
03
06
1'
0,
b10010 "
b10010 #
#19
01
1.
12
19
1/
b11101 !
13
16
1,
b10011 "
b10011 #
#20
11
0.
02
09
04
0/
0@
b11 !
03
06
1+
0'
0,
b10100 "
b10100 #
#21
01
1.
12
19
1/
b1101 !
13
16
1,
b10101 "
b10101 #
#22
11
0.
02
09
00
0/
0>
b10 !
03
06
1'
0,
b10110 "
b10110 #
#23
01
1.
12
19
1/
b1100 !
13
16
1,
b10111 "
b10111 #
#24
04
00
0?
0-
0.
0<
02
09
01
0/
0;
b0 !
03
06
1&
0+
0'
0,
b11000 "
b11000 #
#25
14
10
1?
1-
11
1<
1.
12
19
1/
b11111 !
13
16
1,
b11001 "
b11001 #
#26
0-
01
0<
0.
0?
02
09
10
0/
1>
1@
b10001 !
03
06
1'
0,
b11010 "
b11010 #
#27
00
1-
11
1<
1.
12
19
1/
b11110 !
13
16
1,
b11011 "
b11011 #
#28
10
0-
01
0<
0.
02
09
04
0/
0@
b1 !
03
06
1+
0'
0,
b11100 "
b11100 #
#29
00
1-
11
1<
1.
12
19
1/
b1110 !
13
16
1,
b11101 "
b11101 #
#30
0-
01
0<
04
0.
0?
02
09
00
0/
0>
b0 !
03
06
1'
0,
b11110 "
b11110 #
#31
14
10
1?
1-
11
1<
1.
12
19
1/
b11111 !
13
16
1,
b11111 "
b11111 #
#32
09
0/
18
1:
b10111 !
03
06
1%
0*
0&
0+
0'
0,
b100000 "
b100000 #
#33
02
1/
b11011 !
13
16
1,
b100001 "
b100001 #
#34
0?
12
00
0/
1>
1@
b10110 !
03
06
1'
0,
b100010 "
b100010 #
#35
02
1/
b11010 !
13
16
1,
b100011 "
b100011 #
#36
12
04
0/
0@
b110 !
03
06
1+
0'
0,
b100100 "
b100100 #
#37
02
1/
b1010 !
13
16
1,
b100101 "
b100101 #
#38
14
1?
12
10
0/
0>
b10111 !
03
06
1'
0,
b100110 "
b100110 #
#39
02
1/
b11011 !
13
16
1,
b100111 "
b100111 #
#40
0<
12
01
0/
1;
1=
b10101 !
03
06
1&
0+
0'
0,
b101000 "
b101000 #
#41
02
1/
b11001 !
13
16
1,
b101001 "
b101001 #
#42
0?
12
00
0/
1>
1@
b10100 !
03
06
1'
0,
b101010 "
b101010 #
#43
02
1/
b11000 !
13
16
1,
b101011 "
b101011 #
#44
12
04
0/
0@
b100 !
03
06
1+
0'
0,
b101100 "
b101100 #
#45
02
1/
b1000 !
13
16
1,
b101101 "
b101101 #
#46
14
1?
12
10
0/
0>
b10101 !
03
06
1'
0,
b101110 "
b101110 #
#47
02
1/
b11001 !
13
16
1,
b101111 "
b101111 #
#48
04
00
0?
12
0-
0/
0=
b100 !
03
06
1*
0&
0+
0'
0,
b110000 "
b110000 #
#49
02
1/
b1000 !
13
16
1,
b110001 "
b110001 #
#50
12
10
14
0/
1>
1@
b10101 !
03
06
1'
0,
b110010 "
b110010 #
#51
02
1/
b11001 !
13
16
1,
b110011 "
b110011 #
#52
12
04
0/
0@
b101 !
03
06
1+
0'
0,
b110100 "
b110100 #
#53
02
1/
b1001 !
13
16
1,
b110101 "
b110101 #
#54
12
00
0/
0>
b100 !
03
06
1'
0,
b110110 "
b110110 #
#55
02
1/
b1000 !
13
16
1,
b110111 "
b110111 #
#56
14
10
1?
1-
1<
12
11
0/
0;
b10111 !
03
06
1&
0+
0'
0,
b111000 "
b111000 #
#57
02
1/
b11011 !
13
16
1,
b111001 "
b111001 #
#58
0?
12
00
0/
1>
1@
b10110 !
03
06
1'
0,
b111010 "
b111010 #
#59
02
1/
b11010 !
13
16
1,
b111011 "
b111011 #
#60
12
04
0/
0@
b110 !
03
06
1+
0'
0,
b111100 "
b111100 #
#61
02
1/
b1010 !
13
16
1,
b111101 "
b111101 #
#62
14
1?
12
10
0/
0>
b10111 !
03
06
1'
0,
b111110 "
b111110 #
#63
02
1/
b11011 !
13
16
1,
b111111 "
b111111 #
#64
04
00
0?
0-
01
0<
12
0.
0/
0:
b100 !
03
06
1)
0%
0*
0&
0+
0'
0,
b1000000 "
b1000000 #
#65
02
1/
b1000 !
13
16
1,
b1000001 "
b1000001 #
#66
12
10
14
0/
1>
1@
b10101 !
03
06
1'
0,
b1000010 "
b1000010 #
#67
02
1/
b11001 !
13
16
1,
b1000011 "
b1000011 #
#68
12
04
0/
0@
b101 !
03
06
1+
0'
0,
b1000100 "
b1000100 #
#69
02
1/
b1001 !
13
16
1,
b1000101 "
b1000101 #
#70
12
00
0/
0>
b100 !
03
06
1'
0,
b1000110 "
b1000110 #
#71
02
1/
b1000 !
13
16
1,
b1000111 "
b1000111 #
#72
14
10
1?
12
11
1-
0/
1;
1=
b10111 !
03
06
1&
0+
0'
0,
b1001000 "
b1001000 #
#73
02
1/
b11011 !
13
16
1,
b1001001 "
b1001001 #
#74
0?
12
00
0/
1>
1@
b10110 !
03
06
1'
0,
b1001010 "
b1001010 #
#75
02
1/
b11010 !
13
16
1,
b1001011 "
b1001011 #
#76
12
04
0/
0@
b110 !
03
06
1+
0'
0,
b1001100 "
b1001100 #
#77
02
1/
b1010 !
13
16
1,
b1001101 "
b1001101 #
#78
14
1?
12
10
0/
0>
b10111 !
03
06
1'
0,
b1001110 "
b1001110 #
#79
02
1/
b11011 !
13
16
1,
b1001111 "
b1001111 #
#80
04
00
0?
12
0-
0/
0=
b110 !
03
06
1*
0&
0+
0'
0,
b1010000 "
b1010000 #
#81
02
1/
b1010 !
13
16
1,
b1010001 "
b1010001 #
#82
12
10
14
0/
1>
1@
b10111 !
03
06
1'
0,
b1010010 "
b1010010 #
#83
02
1/
b11011 !
13
16
1,
b1010011 "
b1010011 #
#84
12
04
0/
0@
b111 !
03
06
1+
0'
0,
b1010100 "
b1010100 #
#85
02
1/
b1011 !
13
16
1,
b1010101 "
b1010101 #
#86
12
00
0/
0>
b110 !
03
06
1'
0,
b1010110 "
b1010110 #
#87
02
1/
b1010 !
13
16
1,
b1010111 "
b1010111 #
#88
12
01
0/
0;
b100 !
03
06
1&
0+
0'
0,
b1011000 "
b1011000 #
#89
02
1/
b1000 !
13
16
1,
b1011001 "
b1011001 #
#90
12
10
14
0/
1>
1@
b10101 !
03
06
1'
0,
b1011010 "
b1011010 #
#91
02
1/
b11001 !
13
16
1,
b1011011 "
b1011011 #
#92
12
04
0/
0@
b101 !
03
06
1+
0'
0,
b1011100 "
b1011100 #
#93
02
1/
b1001 !
13
16
1,
b1011101 "
b1011101 #
#94
12
00
0/
0>
b100 !
03
06
1'
0,
b1011110 "
b1011110 #
#95
02
1/
b1000 !
13
16
1,
b1011111 "
b1011111 #
#96
0/
08
b0 !
03
06
1%
0*
0&
0+
0'
0,
b1100000 "
b1100000 #
#97
14
10
1?
1-
11
1<
1.
12
19
1/
b11111 !
13
16
1,
b1100001 "
b1100001 #
#98
0-
01
0<
0.
0?
02
09
10
0/
1>
1@
b10001 !
03
06
1'
0,
b1100010 "
b1100010 #
#99
00
1-
11
1<
1.
12
19
1/
b11110 !
13
16
1,
b1100011 "
b1100011 #
#100
10
0-
01
0<
0.
02
09
04
0/
0@
b1 !
03
06
1+
0'
0,
b1100100 "
b1100100 #
#101
00
1-
11
1<
1.
12
19
1/
b1110 !
13
16
1,
b1100101 "
b1100101 #
#102
0-
01
0<
04
0.
0?
02
09
00
0/
0>
b0 !
03
06
1'
0,
b1100110 "
b1100110 #
#103
14
10
1?
1-
11
1<
1.
12
19
1/
b11111 !
13
16
1,
b1100111 "
b1100111 #
#104
0.
0<
02
09
11
0/
1;
1=
b10011 !
03
06
1&
0+
0'
0,
b1101000 "
b1101000 #
#105
01
1.
12
19
1/
b11101 !
13
16
1,
b1101001 "
b1101001 #
#106
11
0.
0?
02
09
00
0/
1>
1@
b10010 !
03
06
1'
0,
b1101010 "
b1101010 #
#107
01
1.
12
19
1/
b11100 !
13
16
1,
b1101011 "
b1101011 #
#108
11
0.
02
09
04
0/
0@
b10 !
03
06
1+
0'
0,
b1101100 "
b1101100 #
#109
01
1.
12
19
1/
b1100 !
13
16
1,
b1101101 "
b1101101 #
#110
11
14
0.
1?
02
09
10
0/
0>
b10011 !
03
06
1'
0,
b1101110 "
b1101110 #
#111
01
1.
12
19
1/
b11101 !
13
16
1,
b1101111 "
b1101111 #
#112
11
04
0.
00
0?
02
09
0-
0/
0=
b10 !
03
06
1*
0&
0+
0'
0,
b1110000 "
b1110000 #
#113
01
1.
12
19
1/
b1100 !
13
16
1,
b1110001 "
b1110001 #
#114
11
0.
02
09
10
14
0/
1>
1@
b10011 !
03
06
1'
0,
b1110010 "
b1110010 #
#115
01
1.
12
19
1/
b11101 !
13
16
1,
b1110011 "
b1110011 #
#116
11
0.
02
09
04
0/
0@
b11 !
03
06
1+
0'
0,
b1110100 "
b1110100 #
#117
01
1.
12
19
1/
b1101 !
13
16
1,
b1110101 "
b1110101 #
#118
11
0.
02
09
00
0/
0>
b10 !
03
06
1'
0,
b1110110 "
b1110110 #
#119
01
1.
12
19
1/
b1100 !
13
16
1,
b1110111 "
b1110111 #
#120
04
00
0?
0-
0.
0<
02
09
01
0/
0;
b0 !
03
06
1&
0+
0'
0,
b1111000 "
b1111000 #
#121
14
10
1?
1-
11
1<
1.
12
19
1/
b11111 !
13
16
1,
b1111001 "
b1111001 #
#122
0-
01
0<
0.
0?
02
09
10
0/
1>
1@
b10001 !
03
06
1'
0,
b1111010 "
b1111010 #
#123
00
1-
11
1<
1.
12
19
1/
b11110 !
13
16
1,
b1111011 "
b1111011 #
#124
10
0-
01
0<
0.
02
09
04
0/
0@
b1 !
03
06
1+
0'
0,
b1111100 "
b1111100 #
#125
00
1-
11
1<
1.
12
19
1/
b1110 !
13
16
1,
b1111101 "
b1111101 #
#126
0-
01
0<
04
0.
0?
02
09
00
0/
0>
b0 !
03
06
1'
0,
b1111110 "
b1111110 #
#127
14
10
1?
1-
11
1<
1.
12
19
1/
b11111 !
13
16
1,
b1111111 "
b1111111 #
#128
15
17
b11111 !
13
06
1$
0)
0%
0*
0&
0+
0'
0,
b10000000 "
b10000000 #
#129
b10111 !
03
1,
b10000001 "
b10000001 #
#130
0?
00
1>
1@
b11110 !
13
1'
0,
b10000010 "
b10000010 #
#131
b10110 !
03
1,
b10000011 "
b10000011 #
#132
04
0@
b1110 !
13
1+
0'
0,
b10000100 "
b10000100 #
#133
b110 !
03
1,
b10000101 "
b10000101 #
#134
14
1?
10
0>
b11111 !
13
1'
0,
b10000110 "
b10000110 #
#135
b10111 !
03
1,
b10000111 "
b10000111 #
#136
0<
01
1;
1=
b11101 !
13
1&
0+
0'
0,
b10001000 "
b10001000 #
#137
b10101 !
03
1,
b10001001 "
b10001001 #
#138
0?
00
1>
1@
b11100 !
13
1'
0,
b10001010 "
b10001010 #
#139
b10100 !
03
1,
b10001011 "
b10001011 #
#140
04
0@
b1100 !
13
1+
0'
0,
b10001100 "
b10001100 #
#141
b100 !
03
1,
b10001101 "
b10001101 #
#142
14
1?
10
0>
b11101 !
13
1'
0,
b10001110 "
b10001110 #
#143
b10101 !
03
1,
b10001111 "
b10001111 #
#144
04
00
0?
0-
0=
b1100 !
13
1*
0&
0+
0'
0,
b10010000 "
b10010000 #
#145
b100 !
03
1,
b10010001 "
b10010001 #
#146
10
14
1>
1@
b11101 !
13
1'
0,
b10010010 "
b10010010 #
#147
b10101 !
03
1,
b10010011 "
b10010011 #
#148
04
0@
b1101 !
13
1+
0'
0,
b10010100 "
b10010100 #
#149
b101 !
03
1,
b10010101 "
b10010101 #
#150
00
0>
b1100 !
13
1'
0,
b10010110 "
b10010110 #
#151
b100 !
03
1,
b10010111 "
b10010111 #
#152
14
10
1?
1-
1<
11
0;
b11111 !
13
1&
0+
0'
0,
b10011000 "
b10011000 #
#153
b10111 !
03
1,
b10011001 "
b10011001 #
#154
0?
00
1>
1@
b11110 !
13
1'
0,
b10011010 "
b10011010 #
#155
b10110 !
03
1,
b10011011 "
b10011011 #
#156
04
0@
b1110 !
13
1+
0'
0,
b10011100 "
b10011100 #
#157
b110 !
03
1,
b10011101 "
b10011101 #
#158
14
1?
10
0>
b11111 !
13
1'
0,
b10011110 "
b10011110 #
#159
b10111 !
03
1,
b10011111 "
b10011111 #
#160
09
02
18
1:
b11011 !
13
1%
0*
0&
0+
0'
0,
b10100000 "
b10100000 #
#161
b10011 !
03
1,
b10100001 "
b10100001 #
#162
0?
00
1>
1@
b11010 !
13
1'
0,
b10100010 "
b10100010 #
#163
b10010 !
03
1,
b10100011 "
b10100011 #
#164
04
0@
b1010 !
13
1+
0'
0,
b10100100 "
b10100100 #
#165
b10 !
03
1,
b10100101 "
b10100101 #
#166
14
1?
10
0>
b11011 !
13
1'
0,
b10100110 "
b10100110 #
#167
b10011 !
03
1,
b10100111 "
b10100111 #
#168
0<
01
1;
1=
b11001 !
13
1&
0+
0'
0,
b10101000 "
b10101000 #
#169
b10001 !
03
1,
b10101001 "
b10101001 #
#170
0?
00
1>
1@
b11000 !
13
1'
0,
b10101010 "
b10101010 #
#171
b10000 !
03
1,
b10101011 "
b10101011 #
#172
04
0@
b1000 !
13
1+
0'
0,
b10101100 "
b10101100 #
#173
b0 !
03
1,
b10101101 "
b10101101 #
#174
14
1?
10
0>
b11001 !
13
1'
0,
b10101110 "
b10101110 #
#175
b10001 !
03
1,
b10101111 "
b10101111 #
#176
04
00
0?
0-
0=
b1000 !
13
1*
0&
0+
0'
0,
b10110000 "
b10110000 #
#177
b0 !
03
1,
b10110001 "
b10110001 #
#178
10
14
1>
1@
b11001 !
13
1'
0,
b10110010 "
b10110010 #
#179
b10001 !
03
1,
b10110011 "
b10110011 #
#180
04
0@
b1001 !
13
1+
0'
0,
b10110100 "
b10110100 #
#181
b1 !
03
1,
b10110101 "
b10110101 #
#182
00
0>
b1000 !
13
1'
0,
b10110110 "
b10110110 #
#183
b0 !
03
1,
b10110111 "
b10110111 #
#184
14
10
1?
1-
1<
11
0;
b11011 !
13
1&
0+
0'
0,
b10111000 "
b10111000 #
#185
b10011 !
03
1,
b10111001 "
b10111001 #
#186
0?
00
1>
1@
b11010 !
13
1'
0,
b10111010 "
b10111010 #
#187
b10010 !
03
1,
b10111011 "
b10111011 #
#188
04
0@
b1010 !
13
1+
0'
0,
b10111100 "
b10111100 #
#189
b10 !
03
1,
b10111101 "
b10111101 #
#190
14
1?
10
0>
b11011 !
13
1'
0,
b10111110 "
b10111110 #
#191
b10011 !
03
1,
b10111111 "
b10111111 #
#192
04
00
0?
0-
01
0<
0.
0:
b1000 !
13
1)
0%
0*
0&
0+
0'
0,
b11000000 "
b11000000 #
#193
b0 !
03
1,
b11000001 "
b11000001 #
#194
10
14
1>
1@
b11001 !
13
1'
0,
b11000010 "
b11000010 #
#195
b10001 !
03
1,
b11000011 "
b11000011 #
#196
04
0@
b1001 !
13
1+
0'
0,
b11000100 "
b11000100 #
#197
b1 !
03
1,
b11000101 "
b11000101 #
#198
00
0>
b1000 !
13
1'
0,
b11000110 "
b11000110 #
#199
b0 !
03
1,
b11000111 "
b11000111 #
#200
14
10
1?
11
1-
1;
1=
b11011 !
13
1&
0+
0'
0,
b11001000 "
b11001000 #
#201
b10011 !
03
1,
b11001001 "
b11001001 #
#202
0?
00
1>
1@
b11010 !
13
1'
0,
b11001010 "
b11001010 #
#203
b10010 !
03
1,
b11001011 "
b11001011 #
#204
04
0@
b1010 !
13
1+
0'
0,
b11001100 "
b11001100 #
#205
b10 !
03
1,
b11001101 "
b11001101 #
#206
14
1?
10
0>
b11011 !
13
1'
0,
b11001110 "
b11001110 #
#207
b10011 !
03
1,
b11001111 "
b11001111 #
#208
04
00
0?
0-
0=
b1010 !
13
1*
0&
0+
0'
0,
b11010000 "
b11010000 #
#209
b10 !
03
1,
b11010001 "
b11010001 #
#210
10
14
1>
1@
b11011 !
13
1'
0,
b11010010 "
b11010010 #
#211
b10011 !
03
1,
b11010011 "
b11010011 #
#212
04
0@
b1011 !
13
1+
0'
0,
b11010100 "
b11010100 #
#213
b11 !
03
1,
b11010101 "
b11010101 #
#214
00
0>
b1010 !
13
1'
0,
b11010110 "
b11010110 #
#215
b10 !
03
1,
b11010111 "
b11010111 #
#216
01
0;
b1000 !
13
1&
0+
0'
0,
b11011000 "
b11011000 #
#217
b0 !
03
1,
b11011001 "
b11011001 #
#218
10
14
1>
1@
b11001 !
13
1'
0,
b11011010 "
b11011010 #
#219
b10001 !
03
1,
b11011011 "
b11011011 #
#220
04
0@
b1001 !
13
1+
0'
0,
b11011100 "
b11011100 #
#221
b1 !
03
1,
b11011101 "
b11011101 #
#222
00
0>
b1000 !
13
1'
0,
b11011110 "
b11011110 #
#223
b0 !
03
1,
b11011111 "
b11011111 #
#224
14
10
1?
1-
11
1<
1.
19
12
08
b11111 !
13
1%
0*
0&
0+
0'
0,
b11100000 "
b11100000 #
#225
b10111 !
03
1,
b11100001 "
b11100001 #
#226
0?
00
1>
1@
b11110 !
13
1'
0,
b11100010 "
b11100010 #
#227
b10110 !
03
1,
b11100011 "
b11100011 #
#228
04
0@
b1110 !
13
1+
0'
0,
b11100100 "
b11100100 #
#229
b110 !
03
1,
b11100101 "
b11100101 #
#230
14
1?
10
0>
b11111 !
13
1'
0,
b11100110 "
b11100110 #
#231
b10111 !
03
1,
b11100111 "
b11100111 #
#232
0<
01
1;
1=
b11101 !
13
1&
0+
0'
0,
b11101000 "
b11101000 #
#233
b10101 !
03
1,
b11101001 "
b11101001 #
#234
0?
00
1>
1@
b11100 !
13
1'
0,
b11101010 "
b11101010 #
#235
b10100 !
03
1,
b11101011 "
b11101011 #
#236
04
0@
b1100 !
13
1+
0'
0,
b11101100 "
b11101100 #
#237
b100 !
03
1,
b11101101 "
b11101101 #
#238
14
1?
10
0>
b11101 !
13
1'
0,
b11101110 "
b11101110 #
#239
b10101 !
03
1,
b11101111 "
b11101111 #
#240
04
00
0?
0-
0=
b1100 !
13
1*
0&
0+
0'
0,
b11110000 "
b11110000 #
#241
b100 !
03
1,
b11110001 "
b11110001 #
#242
10
14
1>
1@
b11101 !
13
1'
0,
b11110010 "
b11110010 #
#243
b10101 !
03
1,
b11110011 "
b11110011 #
#244
04
0@
b1101 !
13
1+
0'
0,
b11110100 "
b11110100 #
#245
b101 !
03
1,
b11110101 "
b11110101 #
#246
00
0>
b1100 !
13
1'
0,
b11110110 "
b11110110 #
#247
b100 !
03
1,
b11110111 "
b11110111 #
#248
14
10
1?
1-
1<
11
0;
b11111 !
13
1&
0+
0'
0,
b11111000 "
b11111000 #
#249
b10111 !
03
1,
b11111001 "
b11111001 #
#250
0?
00
1>
1@
b11110 !
13
1'
0,
b11111010 "
b11111010 #
#251
b10110 !
03
1,
b11111011 "
b11111011 #
#252
04
0@
b1110 !
13
1+
0'
0,
b11111100 "
b11111100 #
#253
b110 !
03
1,
b11111101 "
b11111101 #
#254
14
1?
10
0>
b11111 !
13
1'
0,
b11111110 "
b11111110 #
#255
b10111 !
03
1,
b11111111 "
b11111111 #
#256
b100000000 #
